<?xml version="1.0" encoding="UTF-8" standalone="no"?>
<!-- Created with Inkscape (http://www.inkscape.org/) -->

<svg
   xmlns:dc="http://purl.org/dc/elements/1.1/"
   xmlns:cc="http://creativecommons.org/ns#"
   xmlns:rdf="http://www.w3.org/1999/02/22-rdf-syntax-ns#"
   xmlns:svg="http://www.w3.org/2000/svg"
   xmlns="http://www.w3.org/2000/svg"
   xmlns:sodipodi="http://sodipodi.sourceforge.net/DTD/sodipodi-0.dtd"
   xmlns:inkscape="http://www.inkscape.org/namespaces/inkscape"
   width="1080"
   height="180"
   viewBox="0 0 285.74999 47.625001"
   version="1.1"
   id="svg8"
   inkscape:version="0.92.1 r"
   sodipodi:docname="bloc_olesa.svg"
   inkscape:export-filename="/home/celebdor/code/gitlab.com/blocolesa/test/static/images/banner.png"
   inkscape:export-xdpi="96"
   inkscape:export-ydpi="96">
  <defs
     id="defs2" />
  <sodipodi:namedview
     id="base"
     pagecolor="#ffffff"
     bordercolor="#666666"
     borderopacity="1.0"
     inkscape:pageopacity="0.0"
     inkscape:pageshadow="2"
     inkscape:zoom="1"
     inkscape:cx="648.79805"
     inkscape:cy="119.88136"
     inkscape:document-units="mm"
     inkscape:current-layer="layer1"
     showgrid="false"
     units="px"
     inkscape:window-width="1920"
     inkscape:window-height="1027"
     inkscape:window-x="0"
     inkscape:window-y="27"
     inkscape:window-maximized="1">
    <inkscape:grid
       type="xygrid"
       id="grid998" />
  </sodipodi:namedview>
  <metadata
     id="metadata5">
    <rdf:RDF>
      <cc:Work
         rdf:about="">
        <dc:format>image/svg+xml</dc:format>
        <dc:type
           rdf:resource="http://purl.org/dc/dcmitype/StillImage" />
        <dc:title></dc:title>
      </cc:Work>
    </rdf:RDF>
  </metadata>
  <g
     inkscape:label="Layer 1"
     inkscape:groupmode="layer"
     id="layer1"
     transform="translate(0,-249.37498)">
    <rect
       style="opacity:1;fill:#fec907;fill-opacity:1;stroke:none;stroke-width:0.811858;stroke-miterlimit:4;stroke-dasharray:3.24743208, 1.62371602;stroke-dashoffset:0;stroke-opacity:1"
       id="rect5076"
       width="232.44772"
       height="47.570576"
       x="53.330223"
       y="249.45279" />
    <rect
       style="opacity:0;fill:#fcc807;fill-opacity:1;stroke:#8bc34a;stroke-width:0.26499999;stroke-miterlimit:4;stroke-dasharray:1.05999994, 0.52999996999999999;stroke-dashoffset:0;stroke-opacity:1"
       id="rect896"
       width="9.6852837"
       height="9.1536369"
       x="31.290581"
       y="184.46614"
       ry="0.63227475" />
    <g
       id="g4778"
       transform="matrix(0.9863388,0,0,0.9863388,260.65273,-66.74483)">
      <path
         inkscape:connector-curvature="0"
         id="path969"
         d="m -264.26285,350.80873 v -18.81354 h 15.97063 v 11.74593 h 13.72568 v -11.06068 -12.10335 h 9.50295 10.17252 v 6.33523 5.26683 h 4.69708 v 0 12.90262 12.24321 l -13.4318,0.13025 -12.37347,0.13026 -0.0702,5.66573 -0.0702,5.66575 h -14.06158 -14.06159 z"
         style="fill:#ee6f20;stroke-width:0.26049399"
         sodipodi:nodetypes="cccccccccccccccccccccc" />
      <path
         inkscape:connector-curvature="0"
         id="path967"
         d="m -247.07025,356.67372 h -8.93957 v 8.79985 l 8.93957,0.0569 z"
         style="fill:#fcc807;fill-opacity:1;stroke-width:0.26049399" />
      <path
         inkscape:connector-curvature="0"
         id="path79"
         d="m -253.55769,363.5578 c -1.67325,-1.40795 -1.53003,-3.94732 0.28503,-5.05394 2.86446,-1.74642 6.04281,1.19555 4.50479,4.16975 -0.83664,1.61789 -3.36352,2.08434 -4.78982,0.88419 z"
         style="fill:#ee6f20;stroke-width:0.26049399" />
      <rect
         style="opacity:1;fill:#fcc807;fill-opacity:1;stroke:none;stroke-width:0.21097881;stroke-miterlimit:4;stroke-dasharray:0.84391526, 0.42195763;stroke-dashoffset:0;stroke-opacity:1"
         id="rect898"
         width="9.8175755"
         height="9.5505314"
         x="-246.01941"
         y="332.17648"
         ry="0" />
      <path
         style="opacity:1;fill:#9d9ea0;fill-opacity:1;stroke:none;stroke-width:0.26499999;stroke-miterlimit:4;stroke-dasharray:1.06, 0.53;stroke-dashoffset:0;stroke-opacity:1"
         d="m -264.26288,320.57709 h 28.03991 v 9.47159 h -28.03991 z"
         id="rect981"
         inkscape:connector-curvature="0"
         sodipodi:nodetypes="ccccc" />
      <path
         inkscape:connector-curvature="0"
         id="rect981-3"
         d="m -212.6234,320.57709 h 2.42939 v 9.52497 h -2.42939 z"
         style="opacity:1;fill:#9d9ea0;fill-opacity:1;stroke:none;stroke-width:0.26499999;stroke-miterlimit:4;stroke-dasharray:1.06000001, 0.53000001;stroke-dashoffset:0;stroke-opacity:1" />
      <path
         inkscape:connector-curvature="0"
         id="rect981-6"
         d="m -233.52187,359.4405 h 23.32786 v 9.47646 h -23.32786 z"
         style="opacity:1;fill:#9d9ea0;fill-opacity:1;stroke:none;stroke-width:0.26499999;stroke-miterlimit:4;stroke-dasharray:1.06000001, 0.53000001;stroke-dashoffset:0;stroke-opacity:1" />
    </g>
    <g
       id="g4711-7"
       transform="translate(-104.48432,6.065573)">
      <g
         id="g4681-5">
        <g
           id="g979-3">
          <g
             transform="matrix(0.98454416,0,0,0.98454416,18.364102,-69.364498)"
             id="g75-5" />
        </g>
      </g>
    </g>
    <path
       inkscape:connector-curvature="0"
       id="path77"
       d="m 65.359096,294.1425 c -2.346678,-0.63077 -4.272874,-2.4324 -4.859854,-4.54556 -1.080672,-3.89049 0.755026,-7.85623 4.187241,-9.04587 3.230883,-1.11986 7.149444,-0.40553 9.174156,1.67238 2.919375,2.99607 2.443608,8.57538 -0.926534,10.86545 -1.896988,1.28903 -5.06157,1.72919 -7.575009,1.0536 z m 4.07498,-3.94798 c 0.74787,-0.74786 1.118504,-2.41451 0.873163,-3.92638 -0.427874,-2.63668 -2.868755,-3.57944 -4.088411,-1.57911 -0.635251,1.04187 -0.703743,3.75451 -0.123146,4.87727 0.75015,1.45062 2.236325,1.7303 3.338394,0.62822 z m 22.270975,3.95536 c -3.409762,-0.9871 -5.146193,-3.27808 -5.152317,-6.79777 -0.0069,-3.99133 2.625504,-6.82565 6.794626,-7.31565 2.593858,-0.30485 5.868236,0.92512 7.17761,2.69619 1.27718,1.7275 2.16585,4.77466 1.59411,5.46606 -0.19803,0.23949 -1.57003,0.32561 -5.186751,0.32561 -4.804535,0 -4.917493,0.0124 -4.917493,0.54103 0,0.29757 0.342651,0.88368 0.761447,1.30247 0.926407,0.92641 2.396823,1.0302 3.406455,0.24046 0.537808,-0.42068 1.070921,-0.51041 3.060808,-0.51519 2.708454,-0.007 2.801264,0.0784 1.760884,1.60936 -0.99461,1.46369 -3.375991,2.52857 -5.99391,2.68029 -1.33078,0.0771 -2.525424,-0.007 -3.305469,-0.23286 z m 4.998678,-9.02381 c 0,-0.29306 -0.287735,-0.82056 -0.639392,-1.17223 -1.245598,-1.24559 -4.049501,-0.50282 -4.049501,1.07272 0,0.62261 0.03604,0.63234 2.344446,0.63234 2.188149,0 2.344447,-0.0355 2.344447,-0.53283 z m 11.461741,8.97592 c -0.788,-0.20868 -1.72578,-0.59271 -2.08396,-0.85341 -0.92179,-0.67093 -1.85904,-2.1331 -1.76927,-2.76018 0.0687,-0.47995 0.28999,-0.53877 2.28755,-0.60802 2.20082,-0.0763 2.21471,-0.0728 2.87857,0.74067 0.51127,0.62645 0.88678,0.82356 1.60781,0.844 1.04858,0.0297 1.76819,-0.42498 1.76819,-1.11726 0,-0.71454 -0.51279,-0.98403 -2.95679,-1.5539 -3.96334,-0.92413 -5.37598,-2.06248 -5.37805,-4.33382 -0.002,-2.1158 1.73114,-3.73822 4.56414,-4.27277 3.79018,-0.71515 7.16304,0.36877 8.37046,2.68999 0.60325,1.15975 0.13481,1.47913 -2.1694,1.47913 -1.74163,0 -1.99591,-0.0666 -2.55345,-0.66813 -0.49091,-0.52969 -0.82019,-0.65113 -1.58927,-0.58611 -1.21827,0.10301 -1.78706,0.8435 -1.06187,1.38242 0.26508,0.19698 1.5508,0.60425 2.85715,0.90503 3.97261,0.91467 5.38745,2.10064 5.38745,4.51596 0,2.11379 -1.51109,3.57806 -4.39234,4.25624 -1.87877,0.44222 -3.95232,0.42071 -5.76692,-0.0599 z m 15.06766,0.17542 c -2.10985,-0.685 -3.18513,-2.01607 -3.18513,-3.94281 0,-2.65941 1.61269,-3.81159 6.30333,-4.50341 2.75816,-0.4068 3.43513,-0.69346 3.43513,-1.45456 0,-0.71905 -0.5604,-1.06218 -1.73476,-1.06218 -0.85371,0 -1.25115,0.15267 -1.7235,0.66208 -0.58165,0.62728 -0.73618,0.65808 -2.9411,0.58611 -2.26665,-0.074 -2.32902,-0.0929 -2.39767,-0.72721 -0.10264,-0.94826 0.80711,-2.24452 2.00371,-2.85498 2.38888,-1.21872 7.74181,-1.31805 9.95666,-0.18476 2.06376,1.05597 2.15821,1.34811 2.31548,7.16098 0.0763,2.81946 0.23536,5.33144 0.35349,5.58216 0.19698,0.41807 -7.9e-4,0.45587 -2.38624,0.45587 -2.30684,0 -2.64146,-0.0589 -2.95842,-0.52024 -0.35397,-0.51526 -0.37046,-0.51372 -1.7173,0.15962 -1.46534,0.73258 -4.07679,1.04815 -5.32368,0.64333 z m 5.53394,-3.22155 c 0.5982,-0.4593 1.01939,-1.35049 1.01939,-2.15696 0,-0.67931 -0.0353,-0.69607 -1.1071,-0.52636 -2.45049,0.38799 -3.67732,1.582 -2.66532,2.59402 0.497,0.49698 2.1521,0.55067 2.75303,0.0893 z m -50.175701,2.62111 c -0.07106,-0.18519 -0.09833,-4.38015 -0.06059,-9.32215 l 0.06861,-8.98543 h 2.60494 2.604939 v 9.24753 9.24753 l -2.544352,0.0746 c -1.8952,0.0555 -2.577314,-0.0113 -2.673556,-0.26209 z m 48.310081,-15.509 c -1.33283,-0.90233 -3.60428,-3.01588 -3.47172,-3.23038 0.0746,-0.12069 1.18124,-0.21944 2.45921,-0.21944 h 2.32359 l 1.16565,1.73758 c 0.64112,0.95568 1.10556,1.83485 1.03209,1.95371 -0.25197,0.40771 -2.80994,0.23169 -3.50882,-0.24147 z m -33.989269,-6.85113 c -5.233898,-0.70086 -7.819239,-5.72813 -5.443231,-10.58451 1.251741,-2.55847 3.9985,-3.89924 7.520895,-3.67118 4.482228,0.29021 7.204835,3.01625 7.172825,7.18188 -0.0375,4.87757 -3.854431,7.79637 -9.250489,7.07381 z m 2.331942,-3.73425 c 1.050084,-0.43875 1.459606,-1.4334 1.459606,-3.54504 0,-2.57857 -1.622835,-4.06943 -3.396441,-3.12022 -1.832128,0.98053 -1.639808,5.74037 0.270513,6.69489 0.798859,0.39917 0.632992,0.40212 1.666322,-0.0296 z m 15.135547,3.74315 c -3.91321,-0.56183 -6.22063,-3.11154 -6.24171,-6.8971 -0.0138,-2.46938 0.60019,-3.97891 2.20515,-5.4219 1.70467,-1.53264 3.54179,-2.1053 6.25079,-1.94849 3.51363,0.20341 6.17664,2.02726 6.67275,4.57007 l 0.16518,0.84661 -2.57237,-10e-6 -2.57238,-10e-6 -0.72747,-0.91172 c -0.9111,-1.14186 -2.20281,-1.2613 -3.17092,-0.29318 -1.10165,1.10164 -1.21127,4.25008 -0.19535,5.61078 1.00799,1.35009 2.81311,1.23434 3.64864,-0.23395 l 0.4451,-0.78219 2.53981,-0.002 c 2.43808,-0.002 2.53982,0.0212 2.53982,0.56734 0,0.31295 -0.25134,1.08819 -0.55853,1.72276 -1.13754,2.34984 -4.73296,3.70321 -8.42851,3.17263 z m -42.981615,-0.34175 c -0.429869,-0.19465 -0.942417,-0.54771 -1.138994,-0.78457 -0.489199,-0.58945 -0.762833,-0.54008 -0.861615,0.15546 -0.07928,0.55823 -0.194737,0.58611 -2.427686,0.58611 h -2.344446 v -9.24754 -9.24754 h 2.60494 2.604939 l 0.07365,2.93055 c 0.04051,1.61181 0.122224,2.93057 0.181588,2.93057 0.05936,0 0.670939,-0.30254 1.359062,-0.6723 2.627215,-1.41174 5.882378,-0.32496 7.475351,2.49575 0.76282,1.35074 0.809115,1.58923 0.809115,4.1679 0,2.48417 -0.06609,2.8606 -0.720144,4.1016 -1.065943,2.02252 -2.354258,2.78302 -4.861428,2.86972 -1.244464,0.043 -2.261295,-0.0624 -2.754336,-0.28571 z m 2.335956,-4.11093 c 0.385743,-0.36739 0.537165,-0.92634 0.612599,-2.26135 0.09153,-1.61986 0.03954,-1.84545 -0.600676,-2.6063 -0.767076,-0.91162 -1.957856,-1.11244 -2.800877,-0.47235 -1.210991,0.91948 -1.497739,3.56333 -0.548658,5.05866 0.725953,1.14379 2.293345,1.2759 3.337612,0.28134 z m 8.857358,3.88044 c -0.07106,-0.18518 -0.09833,-4.38016 -0.06059,-9.32215 l 0.06861,-8.98544 h 2.60494 2.604939 v 9.24754 9.24754 l -2.544352,0.0746 c -1.8952,0.0556 -2.577314,-0.0113 -2.673556,-0.26209 z"
       style="fill:#100c02;stroke-width:0.26049399" />
    <g
       id="g5072"
       transform="translate(0,-57.249133)">
      <g
         id="g5050">
        <path
           style="fill:#fcffff;fill-opacity:1;stroke-width:0.26049399"
           d="m 237.0768,338.94329 c -0.87999,0.6922 -1.53274,0.65759 -2.03431,-0.10791 -0.37582,-0.57365 -0.37575,-0.9576 7.9e-4,-4.36327 0.22708,-2.05385 0.49775,-4.73066 0.6015,-5.94847 0.16718,-1.96224 0.24956,-2.22295 0.724,-2.29079 0.29445,-0.0421 0.73791,0.14722 0.98546,0.42076 0.40531,0.44787 0.42334,0.77944 0.18121,3.33277 -0.48811,5.14727 -0.31759,5.39099 1.39144,1.98881 1.25597,-2.50026 3.26975,-5.34043 4.23498,-5.97288 0.55955,-0.36666 0.6769,-0.36456 1.26786,0.0226 0.7594,0.49749 0.74433,0.38776 0.76531,5.62457 0.0153,3.80987 0.0552,4.12104 0.709,5.5156 0.38106,0.81287 0.6253,1.54548 0.5427,1.62809 -0.31193,0.31193 -1.30046,0.13255 -1.68474,-0.30572 -1.0963,-1.25036 -1.34455,-2.2278 -1.45552,-5.73087 -0.0602,-1.89835 -0.20446,-3.45154 -0.32074,-3.45154 -0.42132,0 -1.29497,1.40334 -3.25173,5.22319 -1.09706,2.14163 -2.29278,4.12837 -2.65714,4.41497 z"
           id="path4845"
           inkscape:connector-curvature="0" />
        <path
           inkscape:connector-curvature="0"
           style="fill:#fcfff6;fill-opacity:1;stroke-width:0.26049399"
           d="m 253.09748,322.18147 c -0.93284,-0.0159 -2.15852,1.13715 -3.70365,3.47679 -1.88601,2.85579 -2.34161,4.36003 -2.32803,7.6848 0.012,2.9426 0.18529,3.61874 1.21905,4.75371 0.6417,0.70452 1.27331,0.74015 2.30839,0.13023 0.4255,-0.25073 1.25228,-1.21298 1.83709,-2.13837 1.05809,-1.67427 1.06513,-1.67985 1.48053,-1.09813 0.94609,1.32487 1.23664,1.57423 2.01952,1.73271 0.67998,0.13765 0.98132,0.0251 1.75855,-0.65732 1.37622,-1.20835 1.15247,-2.48933 -0.2496,-1.42885 -1.86628,1.41157 -2.67927,-1.67998 -1.81953,-6.92154 0.24438,-1.4899 0.40567,-3.11915 0.35812,-3.62046 -0.0753,-0.79406 -0.17663,-0.91157 -0.78652,-0.91157 -0.39396,0 -0.94392,-0.2613 -1.2578,-0.59738 -0.24688,-0.26433 -0.52518,-0.39934 -0.83612,-0.40462 z m -0.47543,2.42155 c 0.19536,0.007 0.24839,0.39402 0.12971,1.18546 -0.14426,0.96197 -0.10287,1.17202 0.22944,1.17202 0.22272,0 0.47846,-0.11897 0.56845,-0.26458 0.38799,-0.62786 0.55497,0.10121 0.34209,1.49396 -0.40707,2.66333 -0.94483,4.39114 -1.91874,6.16294 -1.278,2.32505 -2.25019,3.00062 -3.00654,2.08927 -0.49326,-0.59436 -0.41188,-3.60833 0.14418,-5.32732 0.25247,-0.78047 0.92191,-2.35531 1.48725,-3.50004 0.97811,-1.98054 1.69856,-3.02353 2.02416,-3.01171 z"
           id="path4843" />
        <path
           style="fill:#fcfffd;fill-opacity:1;stroke-width:0.26049399"
           d="m 258.00524,320.70878 c -0.23841,0 -0.53275,-0.26375 -0.65409,-0.58611 -1.62295,-4.31159 -1.78131,-5.26998 -0.84082,-5.08886 0.53102,0.10228 1.5737,2.68025 1.77647,4.39224 0.12834,1.08361 0.0847,1.28273 -0.28156,1.28273 z"
           id="path4833"
           inkscape:connector-curvature="0" />
        <g
           id="g5032">
          <g
             id="g5018">
            <path
               inkscape:connector-curvature="0"
               style="fill:#fcffff;fill-opacity:1;stroke-width:0.26049399"
               d="m 230.47819,326.30111 c -0.6069,-0.0275 -1.20481,0.24014 -1.71463,0.83148 -0.37787,0.43828 -1.10153,1.04153 -1.60817,1.341 -0.56309,0.33284 -1.29958,1.18262 -1.89497,2.18591 -0.93682,1.5786 -1.14095,2.11217 -1.75597,4.59559 -0.16097,0.64999 -0.69207,1.59096 -1.24953,2.21381 -0.53337,0.59593 -1.27576,1.49378 -1.65003,1.99523 -1.84299,2.46923 -2.37432,2.52628 -2.83652,0.30334 -0.39349,-1.89244 0.0466,-8.14797 0.7152,-10.16475 l 0.46302,-1.39578 -0.6041,-0.48938 c -1.65365,-1.33904 -2.49284,1.15992 -2.50269,7.44864 -0.008,5.36987 0.19128,6.749 1.09451,7.5861 0.85713,0.79436 1.79037,0.7852 2.98845,-0.0289 0.52476,-0.35659 1.28432,-1.25753 1.68827,-2.00195 0.40393,-0.74442 0.87236,-1.397 1.04076,-1.45056 0.16839,-0.0536 0.50504,0.32102 0.74776,0.83251 1.04693,2.20625 3.26759,2.86852 5.45858,1.62781 1.33918,-0.75835 3.58288,-3.75847 4.32583,-5.78363 0.77061,-2.10055 0.78926,-5.515 0.0393,-7.18406 -0.69707,-1.55127 -1.73356,-2.41651 -2.74505,-2.46238 z m 0.14417,1.55443 c 0.43804,0.0267 0.76848,0.42565 1.11983,1.27434 1.33138,3.21597 -0.51671,8.45547 -3.73465,10.58695 -1.34108,0.88829 -1.92153,0.97597 -2.51716,0.38034 -0.9176,-0.9176 -0.26342,-5.433 1.09967,-7.59075 0.72786,-1.15217 1.26133,-1.40688 1.52239,-0.72657 0.19795,0.51585 1.0381,0.50148 1.23868,-0.0212 0.23591,-0.61476 0.19095,-1.90527 -0.0842,-2.41949 -0.28516,-0.53283 -0.0997,-0.88643 0.67955,-1.29656 0.25544,-0.13445 0.47682,-0.1992 0.67593,-0.18707 z"
               id="path4849" />
            <path
               style="fill:#fcffff;fill-opacity:1;stroke-width:0.26049399"
               d="m 217.49431,323.4551 c -0.27448,-0.71527 0.0338,-1.28117 0.81169,-1.4902 1.40009,-0.37618 2.24701,0.30996 1.68311,1.3636 -0.33374,0.62362 -2.26644,0.72169 -2.4948,0.1266 z"
               id="path4835"
               inkscape:connector-curvature="0" />
          </g>
          <g
             id="g5014">
            <path
               style="fill:#ffffff;fill-opacity:1;stroke-width:0.26049399"
               d="m 192.93365,346.88843 c -1.11196,0.7546 -1.06038,0.74829 -1.99078,0.24346 -1.61908,-0.87851 -1.90544,-2.73664 -1.51833,-9.85236 0.50432,-9.2707 1.38777,-15.11513 2.67461,-17.69385 0.41462,-0.8309 0.61013,-0.97957 1.19836,-0.91173 0.59949,0.0692 0.69736,0.19613 0.66556,0.86261 -0.0206,0.42982 -0.16986,1.25038 -0.33182,1.82346 -0.84923,3.00485 -2.14596,12.67181 -2.48159,18.49991 -0.27022,4.69226 0.42384,6.6033 1.83352,5.04844 0.42853,-0.47267 0.51805,-1.12128 0.6561,-4.75402 0.11623,-3.05827 0.29471,-4.62603 0.65378,-5.74284 0.57106,-1.77617 1.16576,-2.32693 1.8133,-1.67939 0.38345,0.38343 0.38643,0.55174 0.0323,1.81904 -0.96643,3.4584 -1.20655,9.33573 -0.42012,10.28332 0.44538,0.53664 0.66088,0.45968 1.89292,-0.67597 1.4949,-1.37795 3.71124,-5.63444 4.23046,-8.12459 0.64238,-3.08092 1.471,-5.28402 2.02606,-5.38687 1.12005,-0.20754 1.21779,1.29826 0.29171,4.49394 -0.95617,3.29957 -0.82963,6.41577 0.27778,6.84073 0.28113,0.10788 0.89895,-0.3185 1.90716,-1.31619 0.82023,-0.81167 1.57264,-1.39444 1.67202,-1.29505 0.36251,0.3625 0.1655,1.29778 -0.47053,2.23378 -1.33286,1.96148 -0.46058,2.31948 2.24232,0.92028 1.91471,-0.99118 2.79359,-2.14318 2.22661,-2.91856 -0.1895,-0.25916 -1.61472,-0.89523 -3.16717,-1.4135 -4.52958,-1.51219 -4.70154,-2.27596 -1.24203,-5.51681 1.8102,-1.69578 4.77794,-3.63108 5.56819,-3.63108 0.53595,0 1.11622,0.66692 0.89364,1.02708 -0.0913,0.14763 -1.30286,1.0206 -2.6925,1.93993 -2.83937,1.87843 -4.04985,3.0175 -3.91825,3.68708 0.0621,0.3162 0.68141,0.6256 2.04289,1.02069 2.55216,0.74061 3.85368,1.37883 4.34687,2.13154 1.34411,2.05137 -2.35666,5.82332 -5.71341,5.82332 -0.69535,0 -1.60911,-0.17832 -2.03057,-0.39627 -0.43464,-0.22476 -1.03861,-0.32794 -1.39551,-0.23834 -0.8157,0.20472 -1.57762,-0.21666 -2.15301,-1.19072 -0.25329,-0.42879 -0.60546,-0.77961 -0.78259,-0.77961 -0.17713,0 -0.69662,0.5568 -1.1544,1.23735 -1.25217,1.86143 -2.06164,2.65398 -3.41706,3.34558 -1.49324,0.76194 -1.81194,0.7759 -2.41823,0.10596 -0.59908,-0.66198 -0.69029,-0.65555 -1.84823,0.13025 z"
               id="path4851"
               inkscape:connector-curvature="0" />
            <g
               id="g5004">
              <path
                 inkscape:connector-curvature="0"
                 id="path4839"
                 d="m 180.42834,336.33842 c -1.20517,0 -1.74635,-1.63826 -0.9274,-2.80747 0.50067,-0.7148 2.3069,-0.83246 2.56229,-0.16691 0.32135,0.83741 0.14092,1.71281 -0.48127,2.33499 -0.35167,0.35167 -0.87079,0.63939 -1.15362,0.63939 z"
                 style="fill:#ffffff;fill-opacity:1;stroke-width:0.26049399" />
              <g
                 id="g4996">
                <g
                   id="g4986">
                  <path
                     inkscape:connector-curvature="0"
                     id="path4837"
                     d="m 166.09821,332.1535 c -0.46073,-0.18292 -0.58409,-0.40743 -0.52098,-0.94864 0.067,-0.57554 0.25269,-0.74354 0.98608,-0.89239 1.48778,-0.30195 2.26946,0.42012 1.5061,1.39122 -0.43885,0.55828 -1.23841,0.74073 -1.9712,0.44981 z"
                     style="fill:#fcffff;fill-opacity:1;stroke-width:0.26049399" />
                  <path
                     inkscape:connector-curvature="0"
                     id="path4982"
                     d="m 165.10575,335.39993 c -2.43215,6.82873 -1.40317,12.16076 -1.07576,13.47038 0.3274,1.30962 1.02899,2.99342 2.5257,2.99342 1.49671,0 2.75955,-1.87088 2.99341,-2.29183 0.23386,-0.42095 0.74836,-1.96444 0.74836,-1.96444 l -0.14032,-1.59025 c 0,0 -2.80633,3.92886 -3.22728,3.88209 -0.42095,-0.0468 -0.98221,-1.1693 -0.98221,-1.73057 0,-0.56127 -0.42095,-3.50791 -0.0936,-6.50133 0.32741,-2.99342 1.49671,-5.14494 1.26285,-5.56589 -0.23386,-0.42095 -0.65481,-0.79513 -1.12253,-0.88867 -0.46772,-0.0935 -0.88867,0.18709 -0.88867,0.18709 z"
                     style="fill:#ffffff;fill-opacity:1;fill-rule:evenodd;stroke:none;stroke-width:0.26458332px;stroke-linecap:butt;stroke-linejoin:miter;stroke-opacity:1" />
                </g>
                <path
                   style="fill:#fdffff;fill-opacity:1;fill-rule:evenodd;stroke:none;stroke-width:0.26458332px;stroke-linecap:butt;stroke-linejoin:miter;stroke-opacity:1"
                   d="m 170.48455,349.38481 c 0.11693,0.63142 1.73057,1.59025 2.61924,1.30962 0.88867,-0.28064 2.38538,-2.29184 2.57247,-2.80633 0.18709,-0.5145 0.28063,-0.8419 -0.28063,-0.88867 -1.62219,0.009 -2.63901,4.04957 -3.27406,0.56126 -0.18709,-0.88867 0,-7.10937 0.8419,-14.21874 0.8419,-7.10937 2.15152,-10.14956 2.19829,-10.89791 0.18712,-1.40317 -1.6721,-1.29793 -1.90597,-0.86528 -2.64574,6.27018 -3.87162,20.18016 -2.77124,27.80605 z"
                   id="path4990"
                   inkscape:connector-curvature="0"
                   sodipodi:nodetypes="cccccsccc" />
              </g>
            </g>
          </g>
        </g>
      </g>
      <path
         sodipodi:nodetypes="cccccccscsczzsczccccc"
         inkscape:connector-curvature="0"
         id="path5052"
         d="m 266.25351,312.42849 c -0.49609,5.57279 -0.70933,4.89462 -1.73633,8.51628 -1.02199,-0.0728 -3.22054,0.46283 -4.66328,2.87731 0.22185,0.4691 0.4961,1.60404 1.75287,1.32292 0.42319,-0.88162 2.3151,-1.85208 2.3151,-1.85208 0,0 -0.79375,2.48047 -0.99219,4.16719 -0.19843,1.68671 -0.7276,4.33255 0.0992,5.95312 0.82683,1.62057 1.15756,3.00964 2.77813,3.00964 1.62057,0 3.96875,-2.31511 3.96875,-2.31511 0,0 0.35151,-0.39529 0.38035,-1.11621 0.034,-0.84847 -0.34725,-0.93431 -0.34725,-0.93431 0,0 -2.47566,1.86757 -3.63802,1.9017 -1.16237,0.0341 -1.37307,-2.31976 -1.19062,-4.61368 0.18245,-2.29392 1.0914,-6.74687 1.55442,-6.94531 0.46302,-0.19844 3.30729,-0.66146 3.30729,-0.66146 0,0 0.30485,-0.32045 0.31353,-0.72931 0.009,-0.40886 -0.11512,-0.74243 -0.24743,-0.79204 -0.26458,-0.0992 -3.00964,0.0331 -3.00964,0.0331 0.67131,-1.68925 1.50649,-3.64771 1.42209,-7.80521 -0.0898,-0.54549 -1.99335,-1.50011 -2.06697,-0.0165 z"
         style="fill:#fcfcfb;fill-opacity:1;fill-rule:evenodd;stroke:none;stroke-width:0.26458332px;stroke-linecap:butt;stroke-linejoin:miter;stroke-opacity:1" />
    </g>
  </g>
</svg>
